{
	"ver":24,
	"data":[
		{
			"nav_name":"聚索",
			"objects":[

				{
					"name":"电勾",
					"url":"https://www.dianyinggou.com/",
					"server":true
				}
			]
		},
		{
			"nav_name":"酷车",
			"objects":[

				{
					"name":"卡不",
					"url":"https://www.zhenbuka2.com/",
					"server":true
				}

			]
		},{
			"nav_name":"磁青",
			"objects":[

				{
					"name":"破之晓",
					"url":"https://www.poxiao.com/",
					"server":true
				}

			]
		},
		{
			"nav_name":"游戏时间",
			"objects":[

				{
					"name":"小霸王",
					"url":"https://www.yikm.net/",
					"server":true
				}
			]
		},
		{
			"nav_name":"知不",
			"objects":[

				{
					"name":"IT",
					"url":"https://m.iptv805.com/",
					"server":true
				}
			]
		}
	]
	
	
}